…
#### Grouped summaries with `group_by()`

However, all of these summaries have combined the observations for Sydney and Brisbane. It probably makes sense to group the observations by city, and then compute the summary statistics.  For this, we can use `group_by()`.

If you use `group_by()` on a tibble, it doesn't actually look like it changes that much.


```r
weather %>% 
  group_by(file)
```

```{.output}
# A tibble: 43 × 22
# Groups:   file [2]
   file       date       min_t…¹ max_t…² rainf…³ evapo…⁴ sunsh…⁵ dir_m…⁶ speed…⁷
   <chr>      <date>       <dbl>   <dbl>   <dbl>   <dbl>   <dbl> <chr>     <dbl>
 1 https://r… 2022-11-01    18.2    24       0.2     4.6     9.5 WNW          69
 2 https://r… 2022-11-02    11.1    20.5     0.6    13      12.8 W            67
 3 https://r… 2022-11-03    11.1    22       0       7.8     8.9 W            56
 4 https://r… 2022-11-04    13.4    23.1     1       6       5.7 SSE          26
 5 https://r… 2022-11-05    13.4    23.6     0.2     4.4    11.8 ENE          37
 6 https://r… 2022-11-06    13.3    24       0       4      12.1 ENE          39
 7 https://r… 2022-11-07    15.4    24.2     0       9.8    12.3 NE           41
 8 https://r… 2022-11-08    16      24.2     1.2     8      11   ENE          35
 9 https://r… 2022-11-09    14.9    24.2     0.2     8      10.3 E            33
10 https://r… 2022-11-10    14.9    24.4     0       7.8     9.3 ENE          43
# … with 33 more rows, 13 more variables: time_max_wind_gust <time>,
#   temp_9am_c <dbl>, rel_humid_9am_pc <int>, cloud_amount_9am_oktas <dbl>,
#   wind_direction_9am <chr>, wind_speed_9am_kph <dbl>,
#   MSL_pressure_9am_hPa <dbl>, temp_3pm_c <dbl>, rel_humid_3pm_pc <dbl>,
#   cloud_amount_3pm_oktas <dbl>, wind_direction_3pm <chr>,
#   wind_speed_3pm_kph <dbl>, MSL_pressure_3pm_hPa <dbl>, and abbreviated
#   variable names ¹​min_temp_c, ²​max_temp_c, ³​rainfall_mm, ⁴​evaporation_mm, …
```
…
```r
weather %>% 
  group_by(file, dir_max_wind_gust) %>% 
  summarise(max_max_wind_gust = max(speed_max_wind_gust_kph))
```

```{.output}
`summarise()` has grouped output by 'file'. You can override using the
`.groups` argument.
```

```{.output}
# A tibble: 21 × 3
# Groups:   file [2]
   file                                                          dir_m…¹ max_m…²
   <chr>                                                         <chr>     <dbl>
 1 https://raw.githubusercontent.com/szsctt/cmri_R_workshop/mai… E            35
 2 https://raw.githubusercontent.com/szsctt/cmri_R_workshop/mai… ENE          37
 3 https://raw.githubusercontent.com/szsctt/cmri_R_workshop/mai… ESE          35
 4 https://raw.githubusercontent.com/szsctt/cmri_R_workshop/mai… NE           26
 5 https://raw.githubusercontent.com/szsctt/cmri_R_workshop/mai… NNE          35
 6 https://raw.githubusercontent.com/szsctt/cmri_R_workshop/mai… NW           48
 7 https://raw.githubusercontent.com/szsctt/cmri_R_workshop/mai… W            44
 8 https://raw.githubusercontent.com/szsctt/cmri_R_workshop/mai… WNW          33
 9 https://raw.githubusercontent.com/szsctt/cmri_R_workshop/mai… WSW          43
10 https://raw.githubusercontent.com/szsctt/cmri_R_workshop/mai… <NA>         NA
# … with 11 more rows, and abbreviated variable names ¹​dir_max_wind_gust,
#   ²​max_max_wind_gust
```
…
::::::::::::::::::


We can use `mutate()` to apply the `str_extract()` function to the `file` column


```r
weather <- weather %>% 
  mutate(city = stringr::str_extract(file, "sydney|brisbane"))
weather
```

```{.output}
# A tibble: 43 × 23
   file       date       min_t…¹ max_t…² rainf…³ evapo…⁴ sunsh…⁵ dir_m…⁶ speed…⁷
   <chr>      <date>       <dbl>   <dbl>   <dbl>   <dbl>   <dbl> <chr>     <dbl>
 1 https://r… 2022-11-01    18.2    24       0.2     4.6     9.5 WNW          69
 2 https://r… 2022-11-02    11.1    20.5     0.6    13      12.8 W            67
 3 https://r… 2022-11-03    11.1    22       0       7.8     8.9 W            56
 4 https://r… 2022-11-04    13.4    23.1     1       6       5.7 SSE          26
 5 https://r… 2022-11-05    13.4    23.6     0.2     4.4    11.8 ENE          37
 6 https://r… 2022-11-06    13.3    24       0       4      12.1 ENE          39
 7 https://r… 2022-11-07    15.4    24.2     0       9.8    12.3 NE           41
 8 https://r… 2022-11-08    16      24.2     1.2     8      11   ENE          35
 9 https://r… 2022-11-09    14.9    24.2     0.2     8      10.3 E            33
10 https://r… 2022-11-10    14.9    24.4     0       7.8     9.3 ENE          43
# … with 33 more rows, 14 more variables: time_max_wind_gust <time>,
#   temp_9am_c <dbl>, rel_humid_9am_pc <int>, cloud_amount_9am_oktas <dbl>,
#   wind_direction_9am <chr>, wind_speed_9am_kph <dbl>,
#   MSL_pressure_9am_hPa <dbl>, temp_3pm_c <dbl>, rel_humid_3pm_pc <dbl>,
#   cloud_amount_3pm_oktas <dbl>, wind_direction_3pm <chr>,
#   wind_speed_3pm_kph <dbl>, MSL_pressure_3pm_hPa <dbl>, city <chr>, and
#   abbreviated variable names ¹​min_temp_c, ²​max_temp_c, ³​rainfall_mm, …
```
…
#### Mutating multiple columns with `across()`

Let's imagine that the calibration was wrong for both temperature sensors, and all the temperature measurements are out by 1°C.  We'd like to add 1 to each of the temperature measurements. There are multiple columns that contain temperatures, so we could do this:


```r
weather %>% 
  mutate(min_temp_c = min_temp_c + 1,
         max_temp_c = max_temp_c + 1,
         temp_9am_c = temp_9am_c + 1,
         temp_3pm_c = temp_3pm_c + 1) 
```

```{.output}
# A tibble: 43 × 23
   file       date       min_t…¹ max_t…² rainf…³ evapo…⁴ sunsh…⁵ dir_m…⁶ speed…⁷
   <chr>      <date>       <dbl>   <dbl>   <dbl>   <dbl>   <dbl> <chr>     <dbl>
 1 https://r… 2022-11-01    19.2    25       0.2     4.6     9.5 WNW          69
 2 https://r… 2022-11-02    12.1    21.5     0.6    13      12.8 W            67
 3 https://r… 2022-11-03    12.1    23       0       7.8     8.9 W            56
 4 https://r… 2022-11-04    14.4    24.1     1       6       5.7 SSE          26
 5 https://r… 2022-11-05    14.4    24.6     0.2     4.4    11.8 ENE          37
 6 https://r… 2022-11-06    14.3    25       0       4      12.1 ENE          39
 7 https://r… 2022-11-07    16.4    25.2     0       9.8    12.3 NE           41
 8 https://r… 2022-11-08    17      25.2     1.2     8      11   ENE          35
 9 https://r… 2022-11-09    15.9    25.2     0.2     8      10.3 E            33
10 https://r… 2022-11-10    15.9    25.4     0       7.8     9.3 ENE          43
# … with 33 more rows, 14 more variables: time_max_wind_gust <time>,
#   temp_9am_c <dbl>, rel_humid_9am_pc <int>, cloud_amount_9am_oktas <dbl>,
#   wind_direction_9am <chr>, wind_speed_9am_kph <dbl>,
#   MSL_pressure_9am_hPa <dbl>, temp_3pm_c <dbl>, rel_humid_3pm_pc <dbl>,
#   cloud_amount_3pm_oktas <dbl>, wind_direction_3pm <chr>,
#   wind_speed_3pm_kph <dbl>, MSL_pressure_3pm_hPa <dbl>, city <chr>, and
#   abbreviated variable names ¹​min_temp_c, ²​max_temp_c, ³​rainfall_mm, …
```


But it's a bit annoying to type out each column.  Instead, we can use `across()` inside `mutate()` to apply the same transformation to all columns whose name contains the string "temp".  The syntax is a little complicated, so don't worry if you don't get it straight away.  We use the `contains()` function to get the columns we want (by matching the regex "temp"), and then to each of these columns we add one - the `.` will be replaced by the name of each column when the expression is evaluated.



```r
weather %>% 
  mutate(across(contains("temp"), ~.+1))
```

```{.output}
# A tibble: 43 × 23
   file       date       min_t…¹ max_t…² rainf…³ evapo…⁴ sunsh…⁵ dir_m…⁶ speed…⁷
   <chr>      <date>       <dbl>   <dbl>   <dbl>   <dbl>   <dbl> <chr>     <dbl>
 1 https://r… 2022-11-01    19.2    25       0.2     4.6     9.5 WNW          69
 2 https://r… 2022-11-02    12.1    21.5     0.6    13      12.8 W            67
 3 https://r… 2022-11-03    12.1    23       0       7.8     8.9 W            56
 4 https://r… 2022-11-04    14.4    24.1     1       6       5.7 SSE          26
 5 https://r… 2022-11-05    14.4    24.6     0.2     4.4    11.8 ENE          37
 6 https://r… 2022-11-06    14.3    25       0       4      12.1 ENE          39
 7 https://r… 2022-11-07    16.4    25.2     0       9.8    12.3 NE           41
 8 https://r… 2022-11-08    17      25.2     1.2     8      11   ENE          35
 9 https://r… 2022-11-09    15.9    25.2     0.2     8      10.3 E            33
10 https://r… 2022-11-10    15.9    25.4     0       7.8     9.3 ENE          43
# … with 33 more rows, 14 more variables: time_max_wind_gust <time>,
#   temp_9am_c <dbl>, rel_humid_9am_pc <int>, cloud_amount_9am_oktas <dbl>,
#   wind_direction_9am <chr>, wind_speed_9am_kph <dbl>,
#   MSL_pressure_9am_hPa <dbl>, temp_3pm_c <dbl>, rel_humid_3pm_pc <dbl>,
#   cloud_amount_3pm_oktas <dbl>, wind_direction_3pm <chr>,
#   wind_speed_3pm_kph <dbl>, MSL_pressure_3pm_hPa <dbl>, city <chr>, and
#   abbreviated variable names ¹​min_temp_c, ²​max_temp_c, ³​rainfall_mm, …
```

Equivalently, we could also use a function to make the transformation.


```r
weather %>% 
  mutate(across(contains("temp"), function(x){
    return(x+1)
  }))
```

```{.output}
# A tibble: 43 × 23
   file       date       min_t…¹ max_t…² rainf…³ evapo…⁴ sunsh…⁵ dir_m…⁶ speed…⁷
   <chr>      <date>       <dbl>   <dbl>   <dbl>   <dbl>   <dbl> <chr>     <dbl>
 1 https://r… 2022-11-01    19.2    25       0.2     4.6     9.5 WNW          69
 2 https://r… 2022-11-02    12.1    21.5     0.6    13      12.8 W            67
 3 https://r… 2022-11-03    12.1    23       0       7.8     8.9 W            56
 4 https://r… 2022-11-04    14.4    24.1     1       6       5.7 SSE          26
 5 https://r… 2022-11-05    14.4    24.6     0.2     4.4    11.8 ENE          37
 6 https://r… 2022-11-06    14.3    25       0       4      12.1 ENE          39
 7 https://r… 2022-11-07    16.4    25.2     0       9.8    12.3 NE           41
 8 https://r… 2022-11-08    17      25.2     1.2     8      11   ENE          35
 9 https://r… 2022-11-09    15.9    25.2     0.2     8      10.3 E            33
10 https://r… 2022-11-10    15.9    25.4     0       7.8     9.3 ENE          43
# … with 33 more rows, 14 more variables: time_max_wind_gust <time>,
#   temp_9am_c <dbl>, rel_humid_9am_pc <int>, cloud_amount_9am_oktas <dbl>,
#   wind_direction_9am <chr>, wind_speed_9am_kph <dbl>,
#   MSL_pressure_9am_hPa <dbl>, temp_3pm_c <dbl>, rel_humid_3pm_pc <dbl>,
#   cloud_amount_3pm_oktas <dbl>, wind_direction_3pm <chr>,
#   wind_speed_3pm_kph <dbl>, MSL_pressure_3pm_hPa <dbl>, city <chr>, and
#   abbreviated variable names ¹​min_temp_c, ²​max_temp_c, ³​rainfall_mm, …
```
…
For example, we added a `city` column to our table, so we can drop the `file` column that also contains this information.  


```r
weather %>% 
  select(-file)
```

```{.output}
# A tibble: 43 × 22
   date       min_temp_c max_t…¹ rainf…² evapo…³ sunsh…⁴ dir_m…⁵ speed…⁶ time_…⁷
   <date>          <dbl>   <dbl>   <dbl>   <dbl>   <dbl> <chr>     <dbl> <time> 
 1 2022-11-01       18.2    24       0.2     4.6     9.5 WNW          69 06:50  
 2 2022-11-02       11.1    20.5     0.6    13      12.8 W            67 12:54  
 3 2022-11-03       11.1    22       0       7.8     8.9 W            56 07:41  
 4 2022-11-04       13.4    23.1     1       6       5.7 SSE          26 23:24  
 5 2022-11-05       13.4    23.6     0.2     4.4    11.8 ENE          37 15:20  
 6 2022-11-06       13.3    24       0       4      12.1 ENE          39 16:12  
 7 2022-11-07       15.4    24.2     0       9.8    12.3 NE           41 11:44  
 8 2022-11-08       16      24.2     1.2     8      11   ENE          35 15:55  
 9 2022-11-09       14.9    24.2     0.2     8      10.3 E            33 12:37  
10 2022-11-10       14.9    24.4     0       7.8     9.3 ENE          43 17:10  
# … with 33 more rows, 13 more variables: temp_9am_c <dbl>,
#   rel_humid_9am_pc <int>, cloud_amount_9am_oktas <dbl>,
#   wind_direction_9am <chr>, wind_speed_9am_kph <dbl>,
#   MSL_pressure_9am_hPa <dbl>, temp_3pm_c <dbl>, rel_humid_3pm_pc <dbl>,
#   cloud_amount_3pm_oktas <dbl>, wind_direction_3pm <chr>,
#   wind_speed_3pm_kph <dbl>, MSL_pressure_3pm_hPa <dbl>, city <chr>, and
#   abbreviated variable names ¹​max_temp_c, ²​rainfall_mm, ³​evaporation_mm, …
```

Alternatively, if we only wanted to keep the date, city and the 3pm observations, we can do this as well.


```r
weather %>% 
  select(date, city, contains("3pm"))
```

```{.output}
# A tibble: 43 × 8
   date       city   temp_3pm_c rel_humid_3pm_pc cloud…¹ wind_…² wind_…³ MSL_p…⁴
   <date>     <chr>       <dbl>            <dbl>   <dbl> <chr>     <dbl>   <dbl>
 1 2022-11-01 sydney       23.1               30       2 WNW          31    992 
 2 2022-11-02 sydney       19.7               29       1 SW           22   1006.
 3 2022-11-03 sydney       20                 42       7 SE           20   1017.
 4 2022-11-04 sydney       22.8               55       5 ENE          17   1027.
 5 2022-11-05 sydney       22.2               60       2 ENE          24   1027.
 6 2022-11-06 sydney       23.1               59       1 E            26   1023.
 7 2022-11-07 sydney       23.4               58       2 ENE          24   1021.
 8 2022-11-08 sydney       24                 59       2 ENE          24   1020.
 9 2022-11-09 sydney       23.6               46       1 ENE          26   1022.
10 2022-11-10 sydney       24.1               55       1 ENE          24   1019.
# … with 33 more rows, and abbreviated variable names ¹​cloud_amount_3pm_oktas,
#   ²​wind_direction_3pm, ³​wind_speed_3pm_kph, ⁴​MSL_pressure_3pm_hPa
```
…
```r
weather %>% 
  arrange(desc(max_temp_c))
```

```{.output}
# A tibble: 43 × 23
   file       date       min_t…¹ max_t…² rainf…³ evapo…⁴ sunsh…⁵ dir_m…⁶ speed…⁷
   <chr>      <date>       <dbl>   <dbl>   <dbl>   <dbl>   <dbl> <chr>     <dbl>
 1 https://r… 2022-11-20    20.8    34.5     0       8.8     5.7 NW           48
 2 https://r… 2022-11-21    21.2    34.3     6.6    10.4    10.9 WNW          33
 3 https://r… 2022-11-15    20      33.3     0       5.6    12.9 WNW          30
 4 https://r… 2022-11-16    16.6    30.1     0       8.2    12.5 WSW          43
 5 https://r… 2022-11-14    20.6    28.8     0       9.8     8.4 ENE          26
 6 https://r… 2022-11-12    15.8    28.4     0       7.4    10.5 NE           26
 7 https://r… 2022-11-19    15.1    28.3     0       8      12.5 NNE          35
 8 https://r… 2022-11-12    16      27.9     0       7.8     9.5 ESE          26
 9 https://r… 2022-11-14    18.1    27.9    37.6     4.2    10.8 W            67
10 https://r… 2022-11-13    17.6    27.7     0       7.2    12.4 NNE          33
# … with 33 more rows, 14 more variables: time_max_wind_gust <time>,
#   temp_9am_c <dbl>, rel_humid_9am_pc <int>, cloud_amount_9am_oktas <dbl>,
#   wind_direction_9am <chr>, wind_speed_9am_kph <dbl>,
#   MSL_pressure_9am_hPa <dbl>, temp_3pm_c <dbl>, rel_humid_3pm_pc <dbl>,
#   cloud_amount_3pm_oktas <dbl>, wind_direction_3pm <chr>,
#   wind_speed_3pm_kph <dbl>, MSL_pressure_3pm_hPa <dbl>, city <chr>, and
#   abbreviated variable names ¹​min_temp_c, ²​max_temp_c, ³​rainfall_mm, …
```
…
::::::::: solution



```r
weather %>% 
  group_by(city) %>% 
  arrange(min_temp_c) %>% 
  mutate(rank = row_number()) %>% 
  # select only the relevant columns to verify that it worked
  select(city, date, min_temp_c, rank)
```

```{.output}
# A tibble: 43 × 4
# Groups:   city [2]
   city     date       min_temp_c  rank
   <chr>    <date>          <dbl> <int>
 1 sydney   2022-11-17       10       1
 2 sydney   2022-11-02       11.1     2
 3 sydney   2022-11-03       11.1     3
 4 sydney   2022-11-22       11.7     4
 5 sydney   2022-11-18       12.4     5
 6 brisbane 2022-11-03       12.8     1
 7 sydney   2022-11-19       12.9     6
 8 sydney   2022-11-16       13       7
 9 sydney   2022-11-06       13.3     8
10 sydney   2022-11-04       13.4     9
# … with 33 more rows
```
…
Let's say we have a second table which contains the forecast for each day.  Here I generate this randomly, but you could equally use `readr` or `readxl` to load this data in if you have it in a file.


```r
forecast <- weather %>% 
  select(date, city) %>% 
  mutate(forecast = sample(c("cloudy", "sunny"), size = n(), replace=TRUE))

forecast
```

```{.output}
# A tibble: 43 × 3
   date       city   forecast
   <date>     <chr>  <chr>   
 1 2022-11-01 sydney sunny   
 2 2022-11-02 sydney sunny   
 3 2022-11-03 sydney sunny   
 4 2022-11-04 sydney sunny   
 5 2022-11-05 sydney sunny   
 6 2022-11-06 sydney sunny   
 7 2022-11-07 sydney cloudy  
 8 2022-11-08 sydney sunny   
 9 2022-11-09 sydney cloudy  
10 2022-11-10 sydney cloudy  
# … with 33 more rows
```

Now we would like to join this to our data frame of observations, so we can compare the forecast to what actually happened.


```r
weather %>% 
  left_join(forecast, by=c("date", "city")) %>% 
  select(city, date, sunshine_hours, forecast)
```

```{.output}
# A tibble: 43 × 4
   city   date       sunshine_hours forecast
   <chr>  <date>              <dbl> <chr>   
 1 sydney 2022-11-01            9.5 sunny   
 2 sydney 2022-11-02           12.8 sunny   
 3 sydney 2022-11-03            8.9 sunny   
 4 sydney 2022-11-04            5.7 sunny   
 5 sydney 2022-11-05           11.8 sunny   
 6 sydney 2022-11-06           12.1 sunny   
 7 sydney 2022-11-07           12.3 cloudy  
 8 sydney 2022-11-08           11   sunny   
 9 sydney 2022-11-09           10.3 cloudy  
10 sydney 2022-11-10            9.3 cloudy  
# … with 33 more rows
```
…
