Introduction to R: Reading in data
…
Import this data, including the col_names, col_types, sheet and range named arguments.

  Show me the solution

R

readxl::read_xlsx(here::here("episodes", "data", "human_codon_table.xlsx"),
                  col_names = c("codon", "frequency", "count"),
                  col_types = c('text', 'numeric', 'numeric'),
                  sheet = 'human_codon_table',
                  range = 'A2:C65' )

OUTPUT

# A tibble: 64 × 3
   codon frequency  count
   <chr>     <dbl>  <dbl>
 1 UCU        15.2 618711
 2 UAU        12.2 495699
 3 UGU        10.6 430311
 4 UUC        20.3 824692
 5 UCC        17.7 718892
 6 UAC        15.3 622407
 7 UGC        12.6 513028
 8 UUA         7.7 311881
 9 UCA        12.2 496448
10 UAA         1    40285
# … with 54 more rows
…
