Introduction to R: Case study
…
Challenge

Get a table of the top 10 peptides from each library.

  Show me the solution

R

counts %>% 
  group_by(lib) %>% 
  slice_max(order_by=count, n=10)

OUTPUT

# A tibble: 43 × 3
# Groups:   lib [4]
   peptide count lib  
   <chr>   <int> <chr>
 1 DSGFDYR   173 entry
 2 YYRVNEQ   139 entry
 3 TKIVCQG   130 entry
 4 PHGMDPM   112 entry
 5 EKMPHRS   101 entry
 6 PSFVTLG    87 entry
 7 TQCNAIG    87 entry
 8 GMEVEPY    85 entry
 9 AALHTQL    83 entry
10 NCAPHKG    76 entry
# … with 33 more rows
…
  Show me the solution

R

ranked <- counts %>% 
  select(lib, peptide, rank) %>% 
  pivot_wider(id_cols = "peptide", names_from="lib", values_from = "rank") %>% 
  arrange(expression) %>% 
  mutate(id = row_number())

ranked

OUTPUT

# A tibble: 10,000 × 6
   peptide expression entry vector plasmid    id
   <chr>        <int> <int>  <int>   <int> <int>
 1 NKLAPNL          1    35    902    1807     1
 2 DNPLDPY          2    80    171     396     2
 3 VEDTTFA          3    92    189     301     3
 4 HSCKITP          4   141    434     757     4
 5 RRRMETN          5   186    541     909     5
 6 DLGQGDE          6   226    766    2197     6
 7 DLCLKKT          7   219    780    1930     7
 8 PHGMDPM          8     4    131     266     8
 9 CGHLPGF          9   288   1097    2934     9
10 HDIIKQH         10   275   1224    2754    10
# … with 9,990 more rows
…
R

expr_enrich <- counts %>% 
  filter(lib %in% c("expression", "vector")) %>% 
  select(peptide, lib, frac) %>% 
  pivot_wider(names_from = lib, values_from = frac) %>% 
  mutate(enrichment = expression / vector) %>% 
  arrange(desc(enrichment)) %>% 
  mutate(rank = row_number())

expr_enrich 

OUTPUT

# A tibble: 10,000 × 5
   peptide expression   vector enrichment  rank
   <chr>        <dbl>    <dbl>      <dbl> <int>
 1 NKLAPNL    0.0228  0.000231       98.4     1
 2 DNPLDPY    0.0152  0.000442       34.3     2
 3 CGHLPGF    0.00653 0.000210       31.0     3
 4 HSCKITP    0.0104  0.000336       30.8     4
 5 VEDTTFA    0.0131  0.000442       29.6     5
 6 DLGQGDE    0.00742 0.000252       29.4     6
 7 HDIIKQH    0.00613 0.000210       29.1     7
 8 DLCLKKT    0.00733 0.000252       29.1     8
 9 RRRMETN    0.00849 0.000294       28.9     9
10 PGTAPIT    0.00300 0.000105       28.5    10
# … with 9,990 more rows
…
poor_packagers <- vec_enrich %>% 
  filter(enrichment < 1)

poor_packagers

OUTPUT

# A tibble: 5,668 × 5
   peptide    vector   plasmid enrichment  rank
   <chr>       <dbl>     <dbl>      <dbl> <int>
 1 MLCGFYC 0.0000421 0.0000503      0.837  4333
 2 VGCWDVE 0.0000421 0.0000503      0.837  4334
 3 KWVRLEQ 0.0000421 0.0000503      0.837  4335
 4 YMRPDEV 0.0000421 0.0000503      0.837  4336
 5 SFCASIY 0.0000421 0.0000503      0.837  4337
 6 CPLGTGF 0.0000421 0.0000503      0.837  4338
 7 PYNDHMH 0.0000421 0.0000503      0.837  4339
 8 NFNNSQI 0.0000421 0.0000503      0.837  4340
 9 ERVRIFK 0.0000421 0.0000503      0.837  4341
10 RFWAGYK 0.0000421 0.0000503      0.837  4342
# … with 5,658 more rows
…
Make a table of the top 500 peptides ranked by expression enrichment, removing any of the poor packagers. Save this table to a file called good_peptides.tsv.

  Show me the solution

R

good_peptides <- expr_enrich %>% 
  filter(!peptide %in% poor_packagers$peptide) %>% 
  slice_max(order_by=enrichment, n=500)

good_peptides 

OUTPUT

# A tibble: 541 × 5
   peptide expression   vector enrichment  rank
   <chr>        <dbl>    <dbl>      <dbl> <int>
 1 NKLAPNL    0.0228  0.000231       98.4     1
 2 DNPLDPY    0.0152  0.000442       34.3     2
 3 CGHLPGF    0.00653 0.000210       31.0     3
 4 HSCKITP    0.0104  0.000336       30.8     4
 5 VEDTTFA    0.0131  0.000442       29.6     5
 6 DLGQGDE    0.00742 0.000252       29.4     6
 7 HDIIKQH    0.00613 0.000210       29.1     7
 8 DLCLKKT    0.00733 0.000252       29.1     8
 9 RRRMETN    0.00849 0.000294       28.9     9
10 PGTAPIT    0.00300 0.000105       28.5    10
# … with 531 more rows
…
